{
    "KPlugin": {
        "BugReportUrl": "https://bugs.kde.org/enter_bug.cgi?product=systemsettings&component=kcm_feedback",
        "Description": "Configure user feedback settings",
        "Description[ar]": "اضبط إعدادات مشاركة بياناتك",
        "Description[az]": "İstifadəçi rəyi ayarlarını tənzimləmək",
        "Description[be]": "Наладжванне зваротнай сувязі",
        "Description[bg]": "Конфигуриране на настройките за обратна връзка от потребителя",
        "Description[ca@valencia]": "Configura les opcions dels comentaris de l'usuari",
        "Description[ca]": "Configura les opcions dels comentaris de l'usuari",
        "Description[cs]": "Nastavení voleb uživatelské zpětné vazby",
        "Description[da]": "Indstillinger for brugerfeedback",
        "Description[de]": "Benutzer-Feedback einrichten",
        "Description[en_GB]": "Configure user feedback settings",
        "Description[eo]": "Agordi uzantosugestajn metojn",
        "Description[es]": "Configurar las preferencias de los comentarios del usuario",
        "Description[et]": "Kasutaja tagasiside seadistamine",
        "Description[eu]": "Konfiguratu erabiltzaileen berrelikadura ezarpenak",
        "Description[fi]": "Käyttäjäpalauteasetukset",
        "Description[fr]": "Configurer les paramètres de retours des utilisateurs",
        "Description[gl]": "Configurar as achegas de usuario.",
        "Description[he]": "הגדרת תצורת משוב משתמש",
        "Description[hi]": "उपयोक्ता प्रतिक्रिया सेट्टिंग विन्यस्त करें",
        "Description[hu]": "A felhasználói visszajelzések beállításai",
        "Description[ia]": "Configura preferentias de retorno de usator",
        "Description[id]": "Konfigurasikan pengaturan feedback pengguna",
        "Description[is]": "Grunnstillingar fyrir viðbrögð notanda",
        "Description[it]": "Configura le impostazioni di segnalazione dell'utente",
        "Description[ja]": "ユーザ フィードバックを設定",
        "Description[ka]": "მომხმარებლის უკუკავშირის პარამეტრების მორგება",
        "Description[ko]": "사용자 피드백 설정",
        "Description[lt]": "Konfigūruoti naudotojo grįžtamojo ryšio nuostatas",
        "Description[lv]": "Pārvaldiet lietotāja atgriezeniskās saites iestatījumus",
        "Description[nl]": "Instellingen voor terugkoppeling van gebruikers configureren",
        "Description[nn]": "Set opp tilbakemeldingar frå brukarar",
        "Description[pa]": "ਵਰਤੋਂਕਾਰ ਫੀਡਬੈਕ ਸੈਟਿੰਗਾਂ ਦੀ ਸੰਰਚਨਾ",
        "Description[pl]": "Ustawienia informacji zwrotnej",
        "Description[pt]": "Configurar as opções das reacções do utilizador",
        "Description[pt_BR]": "Configure as definições dos comentários dos usuários",
        "Description[ro]": "Configurează parametrii reacțiilor utilizatorului",
        "Description[ru]": "Настройка параметров обратной связи",
        "Description[sa]": "उपयोक्तृप्रतिक्रियासमयोजनानि विन्यस्यताम्",
        "Description[sk]": "Nastaviť používateľskú odozvu",
        "Description[sl]": "Nastavi uporabnikov odziv",
        "Description[sv]": "Anpassa inställningar av användaråterkoppling",
        "Description[ta]": "பயனர் பின்னூட்டத்தை அமையுங்கள்",
        "Description[tr]": "Kullanıcı geri bildirim ayarlarını yapılandırın",
        "Description[uk]": "Налаштовування системи відгуків користувача",
        "Description[vi]": "Cấu hình các thiết lập phản hồi của người dùng",
        "Description[x-test]": "xxConfigure user feedback settingsxx",
        "Description[zh_CN]": "配置用户反馈设置",
        "Description[zh_TW]": "設定使用者意見回應",
        "FormFactors": [
            "tablet",
            "handset",
            "desktop"
        ],
        "Icon": "preferences-desktop-feedback",
        "Name": "User Feedback",
        "Name[ar]": "مشاركة بياناتك",
        "Name[az]": "İstifadəçi Rəyi",
        "Name[be]": "Зваротная сувязь",
        "Name[bg]": "Обратна връзка",
        "Name[ca@valencia]": "Comentaris de l'usuari",
        "Name[ca]": "Comentaris de l'usuari",
        "Name[cs]": "Zpětná vazba uživatele",
        "Name[da]": "Brugerfeedback",
        "Name[de]": "Benutzer-Feedback",
        "Name[en_GB]": "User Feedback",
        "Name[eo]": "Prikomentado de Uzanto",
        "Name[es]": "Comentarios del usuario",
        "Name[et]": "Kasutaja tagasiside",
        "Name[eu]": "Erabiltzaileen berrelikadura",
        "Name[fi]": "Käyttäjäpalaute",
        "Name[fr]": "Retours des utilisateurs",
        "Name[gl]": "Achegas de usuario",
        "Name[he]": "משוב משתמש",
        "Name[hi]": "उपयोक्ता प्रतिक्रिया",
        "Name[hu]": "Felhasználói visszajelzés",
        "Name[ia]": "Responsa del usator",
        "Name[id]": "Umpan Balik Pengguna",
        "Name[is]": "Umsagnir notenda",
        "Name[it]": "Segnalazioni dell'utente",
        "Name[ja]": "ユーザ フィードバック",
        "Name[ka]": "მომხარებლის უკუკავშირი",
        "Name[ko]": "사용자 피드백",
        "Name[lt]": "Naudotojo grįžtamasis ryšys",
        "Name[lv]": "Lietotāja atsauksmes",
        "Name[ml]": "ഉപയോക്തൃ അഭിപ്രായം",
        "Name[nl]": "Terugkoppeling van gebruiker",
        "Name[nn]": "Tilbake­meldingar",
        "Name[pa]": "ਵਰਤੋਂਕਾਰ ਸੁਝਾਅ",
        "Name[pl]": "Informacja zwrotna",
        "Name[pt]": "Reacções do Utilizador",
        "Name[pt_BR]": "Comentários dos usuários",
        "Name[ro]": "Reacții utilizator",
        "Name[ru]": "Обратная связь",
        "Name[sa]": "उपयोक्तृप्रतिक्रिया",
        "Name[sk]": "Používateľská odozva",
        "Name[sl]": "Uporabnikov odziv",
        "Name[sv]": "Användaråterkoppling",
        "Name[ta]": "பயனர் பின்னூட்டம்",
        "Name[tg]": "Изҳори назари корбар",
        "Name[tok]": "toki wile pi kulupu kepeken",
        "Name[tr]": "Kullanıcı Geri Bildirimi",
        "Name[uk]": "Відгуки користувача",
        "Name[vi]": "Phản hồi của người dùng",
        "Name[x-test]": "xxUser Feedbackxx",
        "Name[zh_CN]": "用户反馈",
        "Name[zh_TW]": "使用者意見回應"
    },
    "X-DocPath": "kcontrol/feedback/index.html",
    "X-KDE-Keywords": "feedback,report,contact,data collection,statistics,usage,log,logging,telemetry",
    "X-KDE-Keywords[ar]": "ردود الفعل,التقرير,الاتصال,جمع البيانات,الإحصاءات,الاستخدام,السجل,التسجيل,القياس عن بعد,مشاركة بيانات",
    "X-KDE-Keywords[az]": "feedback,report,contact,data collection,statistics,usage,log,logging,telemetry,geri rəy bildirişi,hesabat,əlaqə,verilənlərin toplanması,statistika, istifadə,jurnal,jurnalın yazılması,telemetriya",
    "X-KDE-Keywords[ca]": "comentari,informe,contacte,recol·lecció de dades,estadístiques,ús,registre, enregistrament,telemetria",
    "X-KDE-Keywords[en_GB]": "feedback,report,contact,data collection,statistics,usage,log,logging,telemetry",
    "X-KDE-Keywords[es]": "realimentación,comentarios y sugerencias,informe,contacto,recopilación de datos,estadísticas,uso,registro,telemetría",
    "X-KDE-Keywords[eu]": "erreakzioa,txostena,kontaktua,datu-bilketa,estatistikak,erabilera,egunkaria,erregistratzea,telemetria",
    "X-KDE-Keywords[fi]": "palaute,raportti,yhteystiedot,tiedon keruu,tilastot,käyttö,loki,telemetria",
    "X-KDE-Keywords[fr]": "Retour utilisateur, rapport, contact, collecte de données, statistiques, utilisation, journal, connexion, télémétrie",
    "X-KDE-Keywords[hi]": "प्रतिक्रिया, रिपोर्ट, संपर्क, डेटा संग्रह, आंकड़े, उपयोग, लॉग, लॉगिंग,टेलीमेटरी",
    "X-KDE-Keywords[hu]": "visszajelzés,jelentés,kapcsolat,adatgyűjtés,statisztika,használat,napló,naplózás,telemetria",
    "X-KDE-Keywords[ia]": "evalutation,reporto,contacto,collection de datos,statistica,uso,registro, registrar,telemetria",
    "X-KDE-Keywords[it]": "segnalazione,report,contatto,raccolta dati,statistiche,utilizzo,registro,registrazione,telemetria",
    "X-KDE-Keywords[ko]": "feedback,report,contact,data collection,statistics,usage,log,logging,telemetry,피드백,보고서,연락,데이터 수집,통계,사용량,사용 통계,로그,정보 수집",
    "X-KDE-Keywords[nl]": "terugkoppeling,rapport,contactpersoon,gegevensverzameling,statistieken,gebruik,log,loggen,telemetrie",
    "X-KDE-Keywords[nn]": "tilbakemelding,respons,rapport,respons,kontakt,datainnsamling,statistikk,bruk,logg,logging,telemetri",
    "X-KDE-Keywords[pl]": "informacja zwrotna,zgłoszenie,kontakt,zbiór danych,statystyka,użycie,dziennik,rejestrowanie,telemetria",
    "X-KDE-Keywords[pt]": "reacções,relatório,contacto,recolha de dados,estatísticas,utilização,registo,telemetria",
    "X-KDE-Keywords[pt_BR]": "comentário,relatório,contato,coleção de dados,estatísticas,uso,log,registro,telemetria",
    "X-KDE-Keywords[ru]": "feedback,report,contact,data collection,statistics,usage,log,logging,telemetry,обратная связь,отчёт,контакт,сбор данных,статистика,использование,журнал,журналирование,телеметрия",
    "X-KDE-Keywords[sk]": "spätná väzba,hlásenie,kontakt,zber údajov,štatistiky,používanie,protokol,zaznamenávanie,telemetria",
    "X-KDE-Keywords[sl]": "povratni odziv,poročilo,zbiranje podatkov,statistika,uporaba,dnevnik,beleženje,telemetrija",
    "X-KDE-Keywords[sv]": "återkoppling,rapportera,kontakta,datainsamling,statistik,användning,logg,loggning,telemetri",
    "X-KDE-Keywords[ta]": "feedback,report,contact,data collection,statistics,usage,log,logging,telemetry, கருத்து, பின்னூட்டம், தொடர்பு, புள்ளிவிவரங்கள், தரவு, பயன்பாட்டு, பதிவு, சேகரிப்பு",
    "X-KDE-Keywords[uk]": "feedback,report,contact,data collection,statistics,usage,log,logging,telemetry,відгук,звіт,зв'язок,контакт,збирання даних,статистика,користування,журнал,журналювання,телеметрія",
    "X-KDE-Keywords[vi]": "feedback,report,contact,data collection,statistics,usage,log,logging,telemetry,phản hồi,báo cáo,liên hệ,thu thập dữ liệu,thống kê,sử dụng,nhật kí,ghi nhật kí,viễn trắc",
    "X-KDE-Keywords[x-test]": "xxfeedbackxx,xxreportxx,xxcontactxx,xxdata collectionxx,xxstatisticsxx,xxusagexx,xxlogxx,xxloggingxx,xxtelemetryxx",
    "X-KDE-Keywords[zh_CN]": "feedback,report,contact,data collection,statistics,usage,log,logging,telemetry,反馈,回馈,反映,报告,联系,数据收集,数据统计,统计数据,使用数据,用量,使用率,使用水平,日志,日志记录,上报,遥测",
    "X-KDE-System-Settings-Parent-Category": "security-privacy",
    "X-KDE-Weight": 50
}
